7.47802	0.683387
8.4375	0.667732
9.52008	0.663259
10.4572	0.692332
11.4867	0.694569
12.4493	0.703514
13.4926	0.710224
14.4286	0.725879
15.6378	0.723642
16.4997	0.741534
17.4091	0.750479
18.3687	0.757188
19.3811	0.766134
21.289	0.77508
23.0731	0.781789
25.0068	0.784026
27.1025	0.790735
28.9825	0.801917
31.4114	0.80639
33.5903	0.808626
34.9695	0.810863
36.8969	0.815335
38.9306	0.822045
41.0764	0.83099
43.9257	0.835463
46.9726	0.844409
50.2309	0.848882
53.7152	0.853355
57.4412	0.860064
61.4256	0.864537
66.5734	0.86901
70.2428	0.871246
76.1296	0.875719
81.4103	0.877955
85.8975	0.882428
90.632	0.886901
96.9187	0.889137
103.642	0.89361
163.528	0.927157
174.871	0.931629
189.526	0.936102
202.673	0.940575
216.732	0.942812
228.677	0.947284
265.034	0.951757
283.418	0.95623
307.17	0.960703
328.477	0.967412
356.005	0.969649
380.7	0.976358
401.683	0.978594
429.546	0.983067
453.222	0.985304
484.66	0.98754
511.373	0.992013
546.845	0.994249
600.677	0.996486
677.748	0.996486
754.519	0.996486
839.986	0.996486
910.381	0.996486
1013.5	0.996486
