7.68072	34.7482
14.9096	48.7568
17.0181	53.0155
18.0723	54.4721
20.0301	57.9462
25	64.5572
29.9699	69.4866
34.9398	73.5191
39.9096	76.3184
44.8795	78.5573
50	80.2354
54.9699	81.5774
59.9398	82.8072
62.8012	83.1416
63.1024	82.8051
63.253	81.2355
63.4036	78.6569
63.7048	78.4325
64.006	78.2081
64.3072	77.9836
64.759	77.647
65.3614	77.5345
65.9639	77.3099
66.7169	77.1973
67.4699	77.0847
68.0723	77.0843
68.6747	77.0839
69.1265	77.0835
69.7289	77.0831
70.0301	77.195
70.4819	77.1947
70.9337	77.1944
71.5361	77.194
71.988	77.3058
72.4398	77.3055
72.8916	77.4173
75	78.2007
79.9699	78.9821
84.9398	80.0998
90.0602	80.6569
95.0301	81.3262
100	82.1076
