502.081	2.66667
503.973	2.41333
506.054	2.82667
507.946	3.09333
510.027	3.4
512.014	3.29333
514	3.50667
515.986	3.6
518.068	3.89333
519.959	4.09333
522.041	4.10667
524.027	4.38667
526.014	4.50667
528	4.38667
529.986	4.69333
533.959	4.90667
540.014	5.09333
543.986	5.8
550.041	6
559.973	6
570	6
