350.321	0.033241
351.925	0.0360111
353.85	0.0360111
355.455	0.0387812
357.059	0.0443213
358.342	0.0443213
360.267	0.0470914
361.872	0.0498615
363.155	0.0526316
364.759	0.0581717
366.364	0.0609418
367.968	0.0637119
369.572	0.0692521
371.176	0.0775623
372.781	0.0858726
374.385	0.0941828
375.668	0.102493
376.952	0.113573
378.235	0.127424
379.519	0.135734
380.481	0.146814
381.444	0.160665
382.406	0.171745
383.369	0.182825
384.011	0.191136
384.652	0.202216
385.294	0.213296
385.936	0.224377
386.578	0.235457
387.219	0.246537
387.861	0.257618
388.824	0.268698
389.465	0.279778
390.428	0.290859
391.07	0.307479
391.711	0.31856
392.674	0.32964
393.316	0.34349
393.957	0.354571
394.599	0.368421
395.241	0.382271
396.203	0.393352
396.845	0.404432
397.487	0.415512
398.128	0.423823
398.77	0.434903
399.412	0.448753
400.053	0.457064
401.016	0.468144
401.658	0.479224
402.299	0.490305
402.941	0.504155
403.583	0.515235
404.225	0.523546
405.187	0.534626
405.829	0.545706
406.791	0.554017
407.433	0.565097
408.075	0.573407
409.037	0.581717
409.679	0.592798
410.642	0.601108
411.283	0.609418
412.246	0.614958
412.888	0.617729
413.85	0.623269
414.492	0.631579
415.455	0.639889
416.096	0.65097
416.738	0.65928
417.38	0.67036
417.701	0.67867
418.021	0.692521
418.342	0.703601
418.984	0.711911
419.305	0.722992
419.947	0.731302
420.588	0.745152
420.909	0.759003
421.23	0.770083
421.872	0.781163
422.193	0.795014
422.513	0.808864
423.155	0.819945
423.797	0.836565
424.439	0.850416
424.759	0.864266
425.401	0.880886
426.043	0.894737
426.684	0.908587
427.005	0.930748
427.647	0.941828
427.968	0.952909
428.289	0.966759
428.61	0.975069
428.93	0.98615
429.572	0.99169
429.893	0.99723
430.856	0.99723
431.497	0.99446
432.139	0.98615
432.46	0.980609
433.102	0.977839
433.743	0.972299
434.385	0.966759
435.027	0.958449
435.348	0.950139
435.989	0.941828
436.31	0.936288
436.631	0.925208
436.952	0.914127
437.273	0.897507
437.594	0.891967
438.235	0.883657
438.556	0.869806
439.198	0.858726
439.519	0.844875
440.16	0.836565
440.481	0.822715
440.802	0.811634
441.444	0.800554
441.765	0.789474
442.086	0.783934
442.727	0.778393
443.69	0.775623
444.973	0.775623
445.615	0.778393
446.578	0.783934
446.898	0.789474
447.54	0.795014
447.861	0.800554
448.503	0.806094
449.144	0.811634
449.465	0.819945
449.786	0.831025
450.107	0.839335
450.428	0.844875
451.07	0.853186
451.711	0.855956
452.353	0.861496
452.995	0.869806
453.316	0.875346
453.957	0.880886
454.599	0.880886
455.241	0.875346
455.882	0.869806
456.524	0.864266
456.845	0.855956
457.487	0.850416
458.128	0.842105
458.77	0.833795
459.412	0.825485
459.733	0.814404
460.053	0.806094
460.374	0.792244
460.695	0.783934
461.016	0.770083
461.337	0.759003
461.658	0.745152
461.979	0.725762
462.299	0.709141
462.62	0.698061
463.262	0.686981
463.583	0.628809
463.904	0.614958
464.225	0.598338
464.545	0.581717
464.866	0.567867
465.187	0.551247
465.508	0.537396
465.829	0.520776
466.471	0.506925
466.791	0.479224
467.112	0.462604
467.754	0.440443
468.075	0.426593
468.396	0.412742
468.717	0.396122
469.037	0.368421
469.358	0.357341
469.679	0.33241
470	0.31856
470.321	0.301939
470.642	0.285319
470.963	0.263158
471.604	0.243767
471.925	0.227147
472.567	0.210526
473.209	0.177285
473.529	0.163435
474.171	0.146814
474.813	0.135734
475.134	0.116343
475.775	0.0969529
476.417	0.0858726
476.738	0.0775623
477.38	0.0692521
478.021	0.0637119
478.342	0.0554017
478.984	0.0470914
479.626	0.0415512
480.267	0.033241
481.23	0.0249307
482.193	0.0221607
482.834	0.0166205
483.797	0.0138504
484.759	0.00831025
486.043	0.00554017
487.647	0.00277008
489.572	0.00277008
491.176	0.00277008
492.781	0.00277008
494.064	0.00277008
