8.83333	83.6669
8.9818	84.0218
9.87717	85.3905
10.3244	86.151
10.9231	86.7592
11.6697	87.8237
11.8191	88.0265
11.9685	88.2292
12.1173	88.5334
12.4166	88.8375
12.566	89.0403
12.7151	89.2938
12.8639	89.5979
13.1632	89.902
13.4666	89.5469
13.6193	89.1919
13.7718	88.8875
14.0751	88.5324
14.3785	88.1773
14.8306	88.1264
15.1315	88.1769
15.2815	88.2783
15.5811	88.5317
19.934	90.9635
24.8892	93.3951
29.8487	95.1167
34.8116	96.2805
37.5197	96.7355
37.9709	96.8367
38.4227	96.8365
38.7242	96.7856
38.7257	96.5321
38.8818	95.6192
39.0336	95.4163
39.1852	95.2641
39.487	95.1625
39.7888	95.061
40.0906	94.9594
40.6933	94.9084
41.2957	94.9081
41.7472	94.9585
42.3493	95.009
42.9511	95.1101
43.4026	95.1605
44.0044	95.2617
44.456	95.3121
45.2084	95.4132
45.8105	95.4636
46.2617	95.5648
46.7132	95.6153
47.0141	95.6658
47.7665	95.7669
49.7219	96.1715
54.839	96.7268
59.8061	97.1806
64.7739	97.5331
69.8923	97.8855
74.8615	97.9844
79.8296	98.2861
84.7992	98.3343
89.7682	98.4839
94.8881	98.5827
99.857	98.7323
